2.9.1Gate_level_greater_than_circuit/2.9.1Gate_level_greater_than_circuit.sim/sim_1/behav/xsim/simulate.log
Vivado Simulator 2018.2
Time resolution is 1 ps
in0  in1  | gt
0000 0000 | 0
0000 0001 | 0
0000 0010 | 0
0000 0011 | 0
0000 0100 | 0
0000 0101 | 0
0000 0110 | 0
0000 0111 | 0
0000 1000 | 0
0000 1001 | 0
0000 1010 | 0
0000 1011 | 0
0000 1100 | 0
0000 1101 | 0
0000 1110 | 0
0000 1111 | 0
0001 0000 | 1
0001 0001 | 0
0001 0010 | 0
0001 0011 | 0
0001 0100 | 0
0001 0101 | 0
0001 0110 | 0
0001 0111 | 0
0001 1000 | 0
0001 1001 | 0
0001 1010 | 0
0001 1011 | 0
0001 1100 | 0
0001 1101 | 0
0001 1110 | 0
0001 1111 | 0
0010 0000 | 1
0010 0001 | 1
0010 0010 | 0
0010 0011 | 0
0010 0100 | 0
0010 0101 | 0
0010 0110 | 0
0010 0111 | 0
0010 1000 | 0
0010 1001 | 0
0010 1010 | 0
0010 1011 | 0
0010 1100 | 0
0010 1101 | 0
0010 1110 | 0
0010 1111 | 0
0011 0000 | 1
0011 0001 | 1
0011 0010 | 1
0011 0011 | 0
0011 0100 | 0
0011 0101 | 0
0011 0110 | 0
0011 0111 | 0
0011 1000 | 0
0011 1001 | 0
0011 1010 | 0
0011 1011 | 0
0011 1100 | 0
0011 1101 | 0
0011 1110 | 0
0011 1111 | 0
0100 0000 | 1
0100 0001 | 1
0100 0010 | 1
0100 0011 | 1
0100 0100 | 0
0100 0101 | 0
0100 0110 | 0
0100 0111 | 0
0100 1000 | 0
0100 1001 | 0
0100 1010 | 0
0100 1011 | 0
0100 1100 | 0
0100 1101 | 0
0100 1110 | 0
0100 1111 | 0
0101 0000 | 1
0101 0001 | 1
0101 0010 | 1
0101 0011 | 1
0101 0100 | 1
0101 0101 | 0
0101 0110 | 0
0101 0111 | 0
0101 1000 | 0
0101 1001 | 0
0101 1010 | 0
0101 1011 | 0
0101 1100 | 0
0101 1101 | 0
0101 1110 | 0
0101 1111 | 0
0110 0000 | 1
0110 0001 | 1
0110 0010 | 1
0110 0011 | 1
